module gitlab.com/omame/tado-exporter

go 1.22.3

require (
	github.com/prometheus/client_golang v1.19.1
	github.com/prometheus/common v0.53.0
	github.com/sirupsen/logrus v1.9.3
	golang.org/x/oauth2 v0.20.0
)

require (
	github.com/beorn7/perks v1.0.1 // indirect
	github.com/cespare/xxhash/v2 v2.3.0 // indirect
	github.com/prometheus/client_model v0.6.1 // indirect
	github.com/prometheus/procfs v0.15.0 // indirect
	golang.org/x/sys v0.20.0 // indirect
	google.golang.org/protobuf v1.34.1 // indirect
)
